{"count": 357, "page": 1, "totalPages": 12, "nextPage": 2, "previousPage": 0, "showingFrom": 1, "showingTo": 30, "items": [{"chave": 287371, "id": 87371, "titulo": "A Revolu\u00e7\u00e3o digital e os desafios da comunica\u00e7\u00e3o", "autor": "Mattos, S\u00e9rgio Augusto Soares", "ano": "2013", "link": "http://biblioteca.ibge.gov.br/index.php/biblioteca-catalogo?view=detalhes&id=287371", "classificacao": "308:6", "nomenclatura": ""}, {"chave": 211379, "id": 11379, "titulo": "Avalia\u00e7\u00e3o e fomento de C & T no Brasil : propostas para os anos 90 / Reinaldo Guimar\u00e3es. -", "autor": "Guimar\u00e3es, Reinaldo Vaz", "ano": "1994.", "link": "http://biblioteca.ibge.gov.br/index.php/biblioteca-catalogo?view=detalhes&id=211379", "classificacao": "5/6(81)", "nomenclatura": ""}, {"chave": 26943, "id": 6943, "titulo": "Telecomunica\u00e7\u00f5es, desregulamenta\u00e7\u00e3o e converg\u00eancia tecnol\u00f3gica : uma an\u00e1lise comparada / organizado por Jorge Ruben Biton Tapia, Alain Rallet. -", "autor": "Rallet, Alain; Tapia, Jorge Ruben Biton", "ano": " 1999.", "link": "http://biblioteca.ibge.gov.br/index.php/biblioteca-catalogo?view=detalhes&id=26943", "classificacao": "654", "nomenclatura": ""}, {"chave": 218808, "id": 18808, "titulo": "Transnational corporations and technology transfer : effects and policy issues / United Nations Centre on Transnational Corporations. -", "autor": "", "ano": "1987.", "link": "http://biblioteca.ibge.gov.br/index.php/biblioteca-catalogo?view=detalhes&id=218808", "classificacao": "334.726", "nomenclatura": ""}, {"chave": 11987, "id": 1987, "titulo": "Values and the future : the impact of technological change on american values", "autor": "Baier, Kurt", "ano": "1969", "link": "http://biblioteca.ibge.gov.br/index.php/biblioteca-catalogo?view=detalhes&id=11987", "classificacao": "", "nomenclatura": ""}, {"chave": 12523, "id": 2523, "titulo": "Politics and technology", "autor": "Williams, Roger, 1942-", "ano": "1971", "link": "http://biblioteca.ibge.gov.br/index.php/biblioteca-catalogo?view=detalhes&id=12523", "classificacao": "", "nomenclatura": ""}, {"chave": 226640, "id": 26640, "titulo": "Ciencia e tecnologia no Brasil : politica industrial, mercado de trabalho e institui\u00e7\u00f5es de apoio / Simon Schwartzman (coord.) ; Carlos Osmar Bertero ...[et al.]. -", "autor": "Bertero, Carlos Osmar, 1937-; Schwartzman, Simon, 1939-", "ano": "1995.", "link": "http://biblioteca.ibge.gov.br/index.php/biblioteca-catalogo?view=detalhes&id=226640", "classificacao": "5/6(81)", "nomenclatura": ""}, {"chave": 226087, "id": 26087, "titulo": "Indicadores de esfor\u00e7o tecnologico : compara\u00e7\u00f5es e implica\u00e7\u00f5es / Virene Roxo Matesco, Lia Hasenclever. -", "autor": "Hasenclever, Lia; Matesco, Virene", "ano": "1996.", "link": "http://biblioteca.ibge.gov.br/index.php/biblioteca-catalogo?view=detalhes&id=226087", "classificacao": "330.322(81)", "nomenclatura": ""}, {"chave": 22637, "id": 2637, "titulo": "Ci\u00eancia e tecnologia : desenvolvimento e inclus\u00e3o social / Roberto Amaral. -", "autor": "Amaral, Roberto, 1939-", "ano": "2003", "link": "http://biblioteca.ibge.gov.br/index.php/biblioteca-catalogo?view=detalhes&id=22637", "classificacao": "5/6(81)", "nomenclatura": ""}, {"chave": 234884, "id": 34884, "titulo": "Tecnologia da comunica\u00e7\u00e3o e informa\u00e7\u00e3o e desenvolvimento : pol\u00edticas e estrat\u00e9gias de inclus\u00e3o digital no Brasil / Rosa Maria Porcaro. -", "autor": "Porcaro, Rosa Maria, 1949-", "ano": "2006", "link": "http://biblioteca.ibge.gov.br/index.php/biblioteca-catalogo?view=detalhes&id=234884", "classificacao": "316.422(81)", "nomenclatura": ""}, {"chave": 249314, "id": 49314, "titulo": "Plano de a\u00e7\u00e3o em ci\u00eancia, tecnologia e inova\u00e7\u00e3o : principais resultados e avan\u00e7os : 2007-2010 / Minist\u00e9rio da Ci\u00eancia e Tecnologia. -", "autor": "", "ano": "2010.", "link": "http://biblioteca.ibge.gov.br/index.php/biblioteca-catalogo?view=detalhes&id=249314", "classificacao": "5/6(81)", "nomenclatura": ""}, {"chave": 226498, "id": 26498, "titulo": "A Pol\u00edtica brasileira de ci\u00eancia e tecnologia 1990/95 / Secretaria da Ci\u00eancia e Tecnologia. -", "autor": "", "ano": "1990.", "link": "http://biblioteca.ibge.gov.br/index.php/biblioteca-catalogo?view=detalhes&id=226498", "classificacao": "338.22:6(81)", "nomenclatura": ""}, {"chave": 29844, "id": 9844, "titulo": "A Transfer\u00eancia de tecnologia no Brasil / Francisco Almeida Biato, Eduardo Augusto de Almeida Guimaraes, Maria Helena Poppe de Figueiredo. -", "autor": "Biato, Francisco Almeida; Figueiredo, Maria Helena Poppe de; Guimar\u00e3es, Eduardo Augusto de Almeida", "ano": "1973.", "link": "http://biblioteca.ibge.gov.br/index.php/biblioteca-catalogo?view=detalhes&id=29844", "classificacao": "338.26", "nomenclatura": ""}, {"chave": 13946, "id": 3946, "titulo": "Technology in Western civilization", "autor": "Kranzberg, Melvin; Pursell, Carroll W.", "ano": "1967.", "link": "http://biblioteca.ibge.gov.br/index.php/biblioteca-catalogo?view=detalhes&id=13946", "classificacao": "", "nomenclatura": ""}, {"chave": 242114, "id": 42114, "titulo": "Ci\u00eancia, tecnologia e inclus\u00e3o social para o MERCOSUL. -", "autor": "", "ano": "2007", "link": "http://biblioteca.ibge.gov.br/index.php/biblioteca-catalogo?view=detalhes&id=242114", "classificacao": "5/6(8)", "nomenclatura": ""}, {"chave": 225187, "id": 25187, "titulo": "Science and Technology in Brazil : a new policy for a global World / Simon Schwartzman (coord.) ; Carlos Osmar Bertero ... [et al.]. -", "autor": "Bertero, Carlos Osmar, 1937-; Schwartzman, Simon, 1939-", "ano": "1995.", "link": "http://biblioteca.ibge.gov.br/index.php/biblioteca-catalogo?view=detalhes&id=225187", "classificacao": "5/6(81)", "nomenclatura": ""}, {"chave": 244346, "id": 44346, "titulo": "Administra\u00e7\u00e3o em ciencia e tecnologia / coordena\u00e7\u00e3o: Prof. Jacques Marcovitch. -", "autor": "Marcovitch, Jacques, 1947-", "ano": "1983", "link": "http://biblioteca.ibge.gov.br/index.php/biblioteca-catalogo?view=detalhes&id=244346", "classificacao": "5/6", "nomenclatura": ""}, {"chave": 26851, "id": 6851, "titulo": "Ci\u00eancia & tecnologia nos anos 90 : a d\u00e9cada do crescimento / Minist\u00e9rio da Ci\u00eancia e Tecnologia. -", "autor": "", "ano": " 1998.", "link": "http://biblioteca.ibge.gov.br/index.php/biblioteca-catalogo?view=detalhes&id=26851", "classificacao": "5/6(81)", "nomenclatura": ""}, {"chave": 27465, "id": 7465, "titulo": "Plano plurianual de ci\u00eancia e tecnologia do Governo Federal : PPA 1996/99 / Minist\u00e9rio da Ci\u00eancia e Tecnologia. -", "autor": "", "ano": "1996.", "link": "http://biblioteca.ibge.gov.br/index.php/biblioteca-catalogo?view=detalhes&id=27465", "classificacao": "5/6(81)", "nomenclatura": ""}, {"chave": 52639, "id": 2639, "titulo": "Pesquisa de servi\u00e7os de tecnologia da informa\u00e7\u00e3o - 2009", "autor": "", "ano": "2009", "link": "http://biblioteca.ibge.gov.br/index.php/biblioteca-catalogo?view=detalhes&id=52639", "classificacao": "338.46:654", "nomenclatura": ""}, {"chave": 255760, "id": 55760, "titulo": "Tecnologia e sociedade : transforma\u00e7\u00f5es sociais / D\u00e9cio Estev\u00e3o do Nascimento, Nanci Stanck da Luz, Marilda Queluz, organizadores.", "autor": "Nascimento, D\u00e9cio Estev\u00e3o do", "ano": "2011.", "link": "http://biblioteca.ibge.gov.br/index.php/biblioteca-catalogo?view=detalhes&id=255760", "classificacao": "308:6", "nomenclatura": ""}, {"chave": 16664, "id": 6664, "titulo": "Technology, science and history", "autor": "Cardwell, D. S. L. (Donald Stephen Lowell)", "ano": "1972", "link": "http://biblioteca.ibge.gov.br/index.php/biblioteca-catalogo?view=detalhes&id=16664", "classificacao": "", "nomenclatura": ""}, {"chave": 16570, "id": 6570, "titulo": "La technologie", "autor": "Beaune, Jean-Claude, 1942-", "ano": "1972", "link": "http://biblioteca.ibge.gov.br/index.php/biblioteca-catalogo?view=detalhes&id=16570", "classificacao": "", "nomenclatura": ""}, {"chave": 15783, "id": 5783, "titulo": "Technology in the ancient world.", "autor": "Hodges, Henry, 1920-", "ano": "1970", "link": "http://biblioteca.ibge.gov.br/index.php/biblioteca-catalogo?view=detalhes&id=15783", "classificacao": "", "nomenclatura": ""}, {"chave": 216233, "id": 16233, "titulo": "A politica tecnologica da segunda metade dos anos oitenta / Fabio Stefano Erber, Eduardo Augusto Guimar\u00e3es [e] Jose Tavares de Araujo Jr. -", "autor": "Ara\u00fajo Junior, Jos\u00e9 Tavares de; Erber, Fabio Stefano; Guimar\u00e3es, Eduardo Augusto de Almeida", "ano": "1984.", "link": "http://biblioteca.ibge.gov.br/index.php/biblioteca-catalogo?view=detalhes&id=216233", "classificacao": "338.22:6(81)", "nomenclatura": ""}, {"chave": 17120, "id": 7120, "titulo": "McGraw-Hill encyclopedia of science and technology", "autor": "", "ano": "1960", "link": "http://biblioteca.ibge.gov.br/index.php/biblioteca-catalogo?view=detalhes&id=17120", "classificacao": "", "nomenclatura": ""}, {"chave": 11403, "id": 1403, "titulo": "The Way things work", "autor": "", "ano": "[1971]", "link": "http://biblioteca.ibge.gov.br/index.php/biblioteca-catalogo?view=detalhes&id=11403", "classificacao": "", "nomenclatura": ""}, {"chave": 219024, "id": 19024, "titulo": "A Politica tecnologica e sua articula\u00e7\u00e3o com a politica economica : elementos para uma analise da a\u00e7\u00e3o do Estado / Anna Maria Jaguaribe. -", "autor": "Jaguaribe, Anna Maria", "ano": "1987.", "link": "http://biblioteca.ibge.gov.br/index.php/biblioteca-catalogo?view=detalhes&id=219024", "classificacao": "338.22:6(81)", "nomenclatura": ""}, {"chave": 252441, "id": 52441, "titulo": "A Estat\u00edstica na tecnologia / Paulo S\u00e1. -", "autor": "S\u00e1, Paulo", "ano": "1944.", "link": "http://biblioteca.ibge.gov.br/index.php/biblioteca-catalogo?view=detalhes&id=252441", "classificacao": "6:519.2", "nomenclatura": ""}, {"chave": 29995, "id": 9995, "titulo": "O mercado de servi\u00e7os tecnologicos no Brasil / Fabio Celso Guimar\u00e3es. -", "autor": "Guimar\u00e3es, Fabio Celso", "ano": "1983.", "link": "http://biblioteca.ibge.gov.br/index.php/biblioteca-catalogo?view=detalhes&id=29995", "classificacao": "6.001.5", "nomenclatura": ""}]}